数据转换
…
#############################################
#第一行代码加载了recipes库。第二行使用count()函数计算ames_train数据集中每个社区出现的次数，然后根据计数按升序排列结果。第三行使用相同的count()函数计算ames_train数据集中Screen_Porch列中每个值出现的次数，并根据计数按升序排列结果。
library(recipes)
count(ames_train, Neighborhood) %>% arrange(n)

## # A tibble: 28 x 2
##    Neighborhood            n
##    <fct>               <int>
##  1 Landmark                1
##  2 Green_Hills             2
##  3 Greens                  3
##  4 Blueste                 8
##  5 Veenker                15
##  6 Northpark_Villa        17
##  7 Bloomington_Heights    18
##  8 Meadow_Village         22
##  9 Briardale              23
## 10 Clear_Creek            26
## # ... with 18 more rows

count(ames_train, Screen_Porch) %>% arrange(n)

## # A tibble: 95 x 2
##    Screen_Porch     n
##           <int> <int>
##  1           40     1
##  2           53     1
##  3           60     1
##  4           64     1
##  5           80     1
##  6           84     1
##  7           88     1
##  8           94     1
##  9           99     1
## 10          104     1
## # ... with 85 more rows
…
baked_train <- bake(prepare, new_data = ames_train)
baked_test <- bake(prepare, new_data = ames_test)
baked_train

## # A tibble: 2,049 x 27
##    MS_SubClass   MS_Zo~1 Lot_S~2 Lot_C~3 Neigh~4 Bldg_~5 House~6 Roof_~7 Exter~8
##    <fct>         <fct>   <fct>   <fct>   <fct>   <fct>   <fct>   <fct>   <fct>  
##  1 Two_Story_PU~ Reside~ Regular Inside  Briard~ Twnhs   Two_St~ Gable   HdBoard
##  2 Two_Story_PU~ Reside~ Regular Inside  Briard~ Twnhs   Two_St~ Gable   HdBoard
##  3 One_Story_PU~ Reside~ Regular FR2     Northp~ Twnhs   One_St~ Gable   Plywood
##  4 One_Story_PU~ Reside~ Regular Inside  Sawyer~ TwnhsE  One_St~ Gable   Plywood
##  5 One_Story_19~ Reside~ Regular Corner  Sawyer~ OneFam  One_St~ Gable   Wd Sdng
##  6 Duplex_All_S~ Reside~ Regular Inside  Sawyer  Duplex  One_an~ Gable   VinylSd
##  7 One_Story_19~ Reside~ Slight~ Inside  Sawyer  OneFam  One_St~ Gable   MetalSd
##  8 One_Story_19~ Reside~ Slight~ Corner  Sawyer  OneFam  One_St~ Gable   HdBoard
##  9 Duplex_All_S~ Reside~ Slight~ Inside  North_~ Duplex  One_St~ Hip     HdBoard
## 10 One_Story_19~ Reside~ Regular Inside  North_~ OneFam  One_St~ Gable   HdBoard
## # ... with 2,039 more rows, 18 more variables: Exterior_2nd <fct>,
## #   Mas_Vnr_Type <fct>, Foundation <fct>, Bsmt_Exposure <fct>,
## #   BsmtFin_Type_1 <fct>, Central_Air <fct>, Electrical <fct>,
## #   Garage_Type <fct>, Garage_Finish <fct>, Paved_Drive <fct>, Fence <fct>,
## #   Sale_Type <fct>, Sale_Price <int>, PC1 <dbl>, PC2 <dbl>, PC3 <dbl>,
## #   PC4 <dbl>, PC5 <dbl>, and abbreviated variable names 1: MS_Zoning,
## #   2: Lot_Shape, 3: Lot_Config, 4: Neighborhood, 5: Bldg_Type, ...
…
