线性回归
…
ozoneTib <- as_tibble(Ozone)

names(ozoneTib) <- c("Month", "Date", "Day", "Ozone", "Press_height",
                     "Wind", "Humid", "Temp_Sand", "Temp_Monte",
                     "Inv_height", "Press_grad", "Inv_temp", "Visib")

ozoneTib

## # A tibble: 366 x 13
##    Month Date  Day   Ozone Press_h~1  Wind Humid Temp_~2 Temp_~3 Inv_h~4 Press~5
##    <fct> <fct> <fct> <dbl>     <dbl> <dbl> <dbl>   <dbl>   <dbl>   <dbl>   <dbl>
##  1 1     1     4         3      5480     8    20      NA    NA      5000     -15
##  2 1     2     5         3      5660     6    NA      38    NA        NA     -14
##  3 1     3     6         3      5710     4    28      40    NA      2693     -25
##  4 1     4     7         5      5700     3    37      45    NA       590     -24
##  5 1     5     1         5      5760     3    51      54    45.3    1450      25
##  6 1     6     2         6      5720     4    69      35    49.6    1568      15
##  7 1     7     3         4      5790     6    19      45    46.4    2631     -33
##  8 1     8     4         4      5790     3    25      55    52.7     554     -28
##  9 1     9     5         6      5700     3    73      41    48.0    2083      23
## 10 1     10    6         7      5700     3    59      44    NA      2654      -2
## # ... with 356 more rows, 2 more variables: Inv_temp <dbl>, Visib <dbl>, and
## #   abbreviated variable names 1: Press_height, 2: Temp_Sand, 3: Temp_Monte,
## #   4: Inv_height, 5: Press_grad

#目前，Month、Day和Date变量都是因子。可以说，这可能是有道理的，但在这个练习中，我们将把它们当作数字来对待。为此，我们使用方便的mutate_all()函数，该函数将数据作为第一个参数，将转换/函数作为第二个参数。在这里，我们用as。将所有变量转换为数值类。
# 将 ozoneTib 中所有变量的数据类型转换为数值型，使用 mutate_all() 函数实现。
# 从转换后的数据集中筛选出 Ozone 变量非缺失的观测值，使用 filter() 函数实现。
# 将处理后的数据集存储在名为 ozoneClean 的变量中，供后续分析使用。
# 综上所述，这段代码的主要作用是将 ozoneTib 数据集中所有变量的数据类型转换为数值型，并从转换后的数据集中筛选出 Ozone 变量非缺失的观测值，以便后续进行数据分析和建模。
ozoneClean <- mutate_all(ozoneTib, as.numeric) %>%
  filter(is.na(Ozone) == FALSE)

ozoneClean

## # A tibble: 361 x 13
##    Month  Date   Day Ozone Press_h~1  Wind Humid Temp_~2 Temp_~3 Inv_h~4 Press~5
##    <dbl> <dbl> <dbl> <dbl>     <dbl> <dbl> <dbl>   <dbl>   <dbl>   <dbl>   <dbl>
##  1     1     1     4     3      5480     8    20      NA    NA      5000     -15
##  2     1     2     5     3      5660     6    NA      38    NA        NA     -14
##  3     1     3     6     3      5710     4    28      40    NA      2693     -25
##  4     1     4     7     5      5700     3    37      45    NA       590     -24
##  5     1     5     1     5      5760     3    51      54    45.3    1450      25
##  6     1     6     2     6      5720     4    69      35    49.6    1568      15
##  7     1     7     3     4      5790     6    19      45    46.4    2631     -33
##  8     1     8     4     4      5790     3    25      55    52.7     554     -28
##  9     1     9     5     6      5700     3    73      41    48.0    2083      23
## 10     1    10     6     7      5700     3    59      44    NA      2654      -2
## # ... with 351 more rows, 2 more variables: Inv_temp <dbl>, Visib <dbl>, and
## #   abbreviated variable names 1: Press_height, 2: Temp_Sand, 3: Temp_Monte,
## #   4: Inv_height, 5: Press_grad
…
# include all possible main effects
model3 <- lm(Sale_Price ~ ., data = ames_train) 
 #print estimated coefficients in a tidy data frame
# "broom::tidy(model3)" 返回一个tibble，其中包含model3的回归系数的点估计、标准误差、t-统计量、p-值和置信区间。具体而言：
# 
# term：自变量的名称。
# estimate：回归系数的估计值（即斜率）。
# std.error：估计系数的标准误差。
# statistic：假设真实系数等于零的t统计量。
# p.value：假设真实系数等于零的p值。
# conf.low和conf.high：系数置信区间的下限和上限。
# 这些值可用于评估线性回归模型中系数的显著性和大小。
broom::tidy(model3)  

## # A tibble: 300 x 5
##    term                                          estim~1 std.e~2 stati~3 p.value
##    <chr>                                           <dbl>   <dbl>   <dbl>   <dbl>
##  1 (Intercept)                                   -2.73e7  1.10e7 -2.47    0.0134
##  2 MS_SubClassOne_Story_1945_and_Older            3.90e3  3.58e3  1.09    0.275 
##  3 MS_SubClassOne_Story_with_Finished_Attic_All~ -5.39e3  1.22e4 -0.443   0.658 
##  4 MS_SubClassOne_and_Half_Story_Unfinished_All~ -4.41e2  1.39e4 -0.0316  0.975 
##  5 MS_SubClassOne_and_Half_Story_Finished_All_A~  1.04e3  7.25e3  0.143   0.886 
##  6 MS_SubClassTwo_Story_1946_and_Newer           -6.67e3  5.51e3 -1.21    0.226 
##  7 MS_SubClassTwo_Story_1945_and_Older            1.57e3  6.07e3  0.259   0.795 
##  8 MS_SubClassTwo_and_Half_Story_All_Ages         3.41e3  1.01e4  0.336   0.737 
##  9 MS_SubClassSplit_or_Multilevel                -6.67e3  1.17e4 -0.571   0.568 
## 10 MS_SubClassSplit_Foyer                         1.49e3  7.51e3  0.199   0.843 
## # ... with 290 more rows, and abbreviated variable names 1: estimate,
## #   2: std.error, 3: statistic
…
