MARS模型
…
## Warning: tidy.numeric不再有用。
## 见help("Deprecated")

## # A tibble: 24 x 2
##    names                                                x
##    <chr>                                            <dbl>
##  1 h(Year_Built-2002) * h(Gr_Liv_Area-2398)       9.04   
##  2 h(Year_Built-2002) * h(2398-Gr_Liv_Area)      -3.38   
##  3 h(Bsmt_Unf_SF-625) * h(3194-Gr_Liv_Area)      -0.0115 
##  4 h(625-Bsmt_Unf_SF) * h(3194-Gr_Liv_Area)       0.00991
##  5 h(2002-Year_Built) * h(Total_Bsmt_SF-912)     -0.767  
##  6 h(2002-Year_Built) * h(912-Total_Bsmt_SF)      0.228  
##  7 Mas_Vnr_TypeStone * h(Gr_Liv_Area-3194)     -588.     
##  8 h(2002-Year_Built) * h(Year_Remod_Add-1971)    7.09   
##  9 NeighborhoodCrawford * h(2002-Year_Built)    321.     
## 10 h(Lot_Area-6720) * h(Garage_Cars-3)           -1.94   
## # ... with 14 more rows
…
